{
  "entity_types": [
    {
      "type": "Entity1",
      "labels": [ "Mention", "M" ],
      "bgColor": "#00AA55",
      "borderColor": "lighten"
    },
    {
      "type": "Entity2",
      "labels": [ "Mention", "M" ],
      "bgColor": "#009FD4",
      "borderColor": "lighten"
    },
    {
      "type": "Entity3",
      "labels": [ "Mention", "M" ],
      "bgColor": "#939393",
      "borderColor": "lighten"
    },
    {
      "type": "Entity4",
      "labels": [ "Mention", "M" ],
      "bgColor": "#AA8F00",
      "borderColor": "lighten"
    },
    {
      "type": "Entity5",
      "labels": [ "Mention", "M" ],
      "bgColor": "#D47500",
      "borderColor": "lighten"
    },
    {
      "type": "Entity6",
      "labels": [ "Mention", "M" ],
      "bgColor": "#FF0000",
      "borderColor": "lighten"
    },
    {
      "type": "Entity7",
      "labels": [ "Mention", "M" ],
      "bgColor": "#294429",
      "borderColor": "lighten"
    },
    {
      "type": "Entity8",
      "labels": [ "Mention", "M" ],
      "bgColor": "#004055",
      "borderColor": "lighten"
    },
    {
      "type": "Entity9",
      "labels": [ "Mention", "M" ],
      "bgColor": "#600060",
      "borderColor": "lighten"
    },
    {
      "type": "Entity10",
      "labels": [ "Mention", "M" ],
      "bgColor": "#545454",
      "borderColor": "lighten"
    }
  ],
  "relation_types": [
    {
      "type": "Coreference1",
      "labels": [ "Coreference", "Coref" , "Co"],
      "dashArray": "3,3",
      "color": "#00AA55",
      "arrowHead": "none",
      "args": [
        {
          "role": "arg1"
        },
        {
          "role": "arg2"
        }
      ]
    },
    {
      "type": "Coreference2",
      "labels": [ "Coreference", "Coref" , "Co"],
      "dashArray": "3,3",
      "color": "#009FD4",
      "arrowHead": "none",
      "args": [
        {
          "role": "arg1"
        },
        {
          "role": "arg2"
        }
      ]
    },
    {
      "type": "Coreference3",
      "labels": [ "Coreference", "Coref" , "Co"],
      "dashArray": "3,3",
      "color": "#939393",
      "arrowHead": "none",
      "args": [
        {
          "role": "arg1"
        },
        {
          "role": "arg2"
        }
      ]
    },
    {
      "type": "Coreference4",
      "labels": [ "Coreference", "Coref" , "Co"],
      "dashArray": "3,3",
      "color": "#AA8F00",
      "arrowHead": "none",
      "args": [
        {
          "role": "arg1"
        },
        {
          "role": "arg2"
        }
      ]
    },
    {
      "type": "Coreference5",
      "labels": [ "Coreference", "Coref" , "Co"],
      "dashArray": "3,3",
      "color": "#D47500",
      "arrowHead": "none",
      "args": [
        {
          "role": "arg1"
        },
        {
          "role": "arg2"
        }
      ]
    },
    {
      "type": "Coreference6",
      "labels": [ "Coreference", "Coref" , "Co"],
      "dashArray": "3,3",
      "color": "#FF0000",
      "arrowHead": "none",
      "args": [
        {
          "role": "arg1"
        },
        {
          "role": "arg2"
        }
      ]
    },
    {
      "type": "Coreference7",
      "labels": [ "Coreference", "Coref" , "Co"],
      "dashArray": "3,3",
      "color": "#294429",
      "arrowHead": "none",
      "args": [
        {
          "role": "arg1"
        },
        {
          "role": "arg2"
        }
      ]
    },
    {
      "type": "Coreference8",
      "labels": [ "Coreference", "Coref" , "Co"],
      "dashArray": "3,3",
      "color": "#004055",
      "arrowHead": "none",
      "args": [
        {
          "role": "arg1"
        },
        {
          "role": "arg2"
        }
      ]
    },
    {
      "type": "Coreference9",
      "labels": [ "Coreference", "Coref" , "Co"],
      "dashArray": "3,3",
      "color": "#600060",
      "arrowHead": "none",
      "args": [
        {
          "role": "arg1"
        },
        {
          "role": "arg2"
        }
      ]
    },
    {
      "type": "Coreference10",
      "labels": [ "Coreference", "Coref" , "Co"],
      "dashArray": "3,3",
      "color": "#545454",
      "arrowHead": "none",
      "args": [
        {
          "role": "arg1"
        },
        {
          "role": "arg2"
        }
      ]
    }
  ]
}
